<svg id="Group_111" data-name="Group 111" xmlns="http://www.w3.org/2000/svg" width="52.895" height="41.364" viewBox="0 0 52.895 41.364">
  <g id="Group_98" data-name="Group 98" transform="translate(36.091 0.003)">
    <g id="Group_97" data-name="Group 97">
      <g id="Group_96" data-name="Group 96">
        <path id="Path_232" data-name="Path 232" d="M94.215,163.911c-.012-2.17-1.605-4.431-3.209-6.668a9.935,9.935,0,0,1-1.4-5.314h.146a1.173,1.173,0,0,0,1.252-1.076v-.94a1.173,1.173,0,0,0-1.252-1.08H81.872a1.173,1.173,0,0,0-1.252,1.08v.94a1.173,1.173,0,0,0,1.252,1.076h.146a9.935,9.935,0,0,1-1.4,5.314c-1.6,2.237-3.2,4.5-3.209,6.668,0,.015.006.034.006.049s-.006.024-.006.033v22.181c0,1.949,3.135,4.014,8.385,4.021h.034c5.25-.008,8.385-2.072,8.385-4.021V163.993c0-.01-.006-.018-.006-.033S94.215,163.927,94.215,163.911Z" transform="translate(-77.411 -148.834)" fill="#caecf4"/>
        <path id="Path_233" data-name="Path 233" d="M79.962,171.135v21.914c0,1.3,2.978,2.35,6.65,2.35s6.65-1.052,6.65-2.35V171.135Z" transform="translate(-78.194 -155.676)" fill="#4dbfd9"/>
        <path id="Path_234" data-name="Path 234" d="M93.263,170.627c0,.633-2.977,1.147-6.65,1.147s-6.65-.514-6.65-1.147,2.978-1.147,6.65-1.147S93.263,169.993,93.263,170.627Z" transform="translate(-78.194 -155.169)" fill="#95d8e9"/>
        <rect id="Rectangle_67" data-name="Rectangle 67" width="10.483" height="3.502" rx="1.613" transform="translate(3.123 0)" fill="#4dbfd9"/>
        <path id="Rectangle_68" data-name="Rectangle 68" d="M1.237,0h0A1.237,1.237,0,0,1,2.475,1.237V7.062A1.238,1.238,0,0,1,1.237,8.3h0A1.237,1.237,0,0,1,0,7.063V1.237A1.237,1.237,0,0,1,1.237,0Z" transform="translate(8.528 4.557)" fill="#fff"/>
      </g>
      <rect id="Rectangle_69" data-name="Rectangle 69" width="2.677" height="16.757" rx="1.338" transform="translate(11.09 18.278)" fill="#fff"/>
    </g>
    <path id="Path_235" data-name="Path 235" d="M91.619,192.682a1.031,1.031,0,1,1-1.032-1.031A1.032,1.032,0,0,1,91.619,192.682Z" transform="translate(-81.137 -161.971)" fill="#95d8e9"/>
    <path id="Path_236" data-name="Path 236" d="M90.052,185.032A1.031,1.031,0,1,1,89.021,184,1.031,1.031,0,0,1,90.052,185.032Z" transform="translate(-80.657 -159.624)" fill="#95d8e9"/>
    <path id="Path_237" data-name="Path 237" d="M85.407,175.443a1.031,1.031,0,1,1-1.031-1.032A1.031,1.031,0,0,1,85.407,175.443Z" transform="translate(-79.232 -156.682)" fill="#95d8e9"/>
    <path id="Path_238" data-name="Path 238" d="M92.074,176.931a1.031,1.031,0,1,1-1.031-1.031A1.032,1.032,0,0,1,92.074,176.931Z" transform="translate(-81.277 -157.138)" fill="#95d8e9"/>
    <path id="Path_239" data-name="Path 239" d="M93.106,202.3a1.031,1.031,0,1,1-1.031-1.032A1.031,1.031,0,0,1,93.106,202.3Z" transform="translate(-81.594 -164.922)" fill="#95d8e9"/>
    <path id="Path_240" data-name="Path 240" d="M88.643,199.528a1.031,1.031,0,1,1-1.031-1.031A1.031,1.031,0,0,1,88.643,199.528Z" transform="translate(-80.224 -164.072)" fill="#95d8e9"/>
  </g>
  <g id="Group_103" data-name="Group 103" transform="translate(0 0)">
    <g id="Group_100" data-name="Group 100">
      <g id="Group_99" data-name="Group 99">
        <path id="Path_241" data-name="Path 241" d="M42.143,163.955a.2.2,0,0,0,.006.033V186.17c0,.973-.783,1.98-2.225,2.739a13.447,13.447,0,0,1-6.16,1.286H33.73c-5.249-.011-8.385-2.074-8.385-4.025V163.988a.2.2,0,0,0,.006-.033c0-.011-.006-.028-.006-.045.011-2.169,1.6-4.433,3.209-6.669a9.472,9.472,0,0,0,1.386-4.908c.006-.15.011-.285.011-.408h-.145a1.172,1.172,0,0,1-1.253-1.074v-.939a1.172,1.172,0,0,1,1.253-1.079h7.882a1.272,1.272,0,0,1,1.157.654,1,1,0,0,1,.095.426v.939a1.172,1.172,0,0,1-1.252,1.074h-.146c0,.123.006.257.011.408a9.478,9.478,0,0,0,1.386,4.908c1.6,2.236,3.2,4.5,3.209,6.669C42.149,163.926,42.143,163.944,42.143,163.955Z" transform="translate(-25.345 -148.831)" fill="#caecf4"/>
        <path id="Path_242" data-name="Path 242" d="M27.9,171.131v21.914c0,1.3,2.977,2.35,6.65,2.35s6.65-1.052,6.65-2.35V171.131Z" transform="translate(-26.128 -155.673)" fill="#f7971e"/>
        <path id="Path_243" data-name="Path 243" d="M41.2,170.623c0,.633-2.977,1.148-6.65,1.148s-6.65-.515-6.65-1.148,2.977-1.147,6.65-1.147S41.2,169.989,41.2,170.623Z" transform="translate(-26.128 -155.165)" fill="#f9b256"/>
        <rect id="Rectangle_70" data-name="Rectangle 70" width="10.484" height="3.503" rx="1.613" transform="translate(3.123)" fill="#e8721b"/>
        <rect id="Rectangle_71" data-name="Rectangle 71" width="2.475" height="8.3" rx="1.238" transform="translate(8.528 4.557)" fill="#fff"/>
      </g>
      <rect id="Rectangle_72" data-name="Rectangle 72" width="2.677" height="16.755" rx="1.339" transform="translate(11.003 18.046)" fill="#fff"/>
    </g>
    <path id="Path_244" data-name="Path 244" d="M33.873,191.055c-6.759,1.181-8.528-1.181-8.528-1.181V175.481s1.213,2.209,8.528,1.181Z" transform="translate(-25.345 -157.007)" fill="#f2f2f2"/>
    <g id="Group_102" data-name="Group 102" transform="translate(0.193 22.743)">
      <g id="Group_101" data-name="Group 101">
        <path id="Path_245" data-name="Path 245" d="M25.623,185.412A3.773,3.773,0,1,0,29.4,181.64,3.773,3.773,0,0,0,25.623,185.412Z" transform="translate(-25.623 -181.64)" fill="#e8721b"/>
        <path id="Path_246" data-name="Path 246" d="M26.35,185.635c0,.047,0,.095,0,.142a3.254,3.254,0,0,0,.853,2.068c.067.069.133.137.2.2a3.243,3.243,0,0,0,2.066.855c.047,0,.094,0,.141,0s.1,0,.143,0a3.256,3.256,0,0,0,2.066-.855c.071-.062.137-.13.2-.2a3.25,3.25,0,0,0,.853-2.068,2.073,2.073,0,0,0,0-.284,3.24,3.24,0,0,0-.854-2.065c-.064-.071-.131-.137-.2-.2a3.251,3.251,0,0,0-2.066-.855c-.046,0-.094,0-.143,0s-.094,0-.141,0a3.239,3.239,0,0,0-2.066.855c-.071.064-.137.13-.2.2a3.24,3.24,0,0,0-.855,2.065C26.35,185.541,26.35,185.589,26.35,185.635Z" transform="translate(-25.846 -181.863)" fill="#f9b256"/>
        <path id="Path_247" data-name="Path 247" d="M26.354,185.777h2.92l-2.068,2.068c.067.069.133.137.2.2l2.066-2.066V188.9c.047,0,.094,0,.141,0s.1,0,.143,0v-2.921l2.066,2.066c.071-.062.137-.13.2-.2l-2.067-2.068h2.92a2.073,2.073,0,0,0,0-.284h-2.92l2.066-2.065c-.064-.071-.131-.137-.2-.2l-2.066,2.066v-2.92c-.046,0-.094,0-.143,0s-.094,0-.141,0v2.92l-2.066-2.066c-.071.064-.137.13-.2.2l2.066,2.065h-2.92c0,.048,0,.095,0,.141S26.35,185.73,26.354,185.777Z" transform="translate(-25.846 -181.863)" fill="#f7971e"/>
        <path id="Path_248" data-name="Path 248" d="M29.395,184.06a.889.889,0,0,0,.53.377.893.893,0,0,0,0-.65c-.146-.283-.383-.452-.53-.376S29.249,183.777,29.395,184.06Z" transform="translate(-26.747 -182.178)" fill="#fcf6a8"/>
        <path id="Path_249" data-name="Path 249" d="M27.795,186.063a.89.89,0,0,0,.64-.113.894.894,0,0,0-.462-.457c-.3-.095-.591-.044-.64.114S27.491,185.969,27.795,186.063Z" transform="translate(-26.145 -182.807)" fill="#fcf6a8"/>
        <path id="Path_250" data-name="Path 250" d="M28.073,188.414a.889.889,0,0,0,.372-.532.889.889,0,0,0-.65,0c-.282.148-.449.386-.372.533S27.79,188.563,28.073,188.414Z" transform="translate(-26.169 -183.536)" fill="#fcf6a8"/>
        <path id="Path_251" data-name="Path 251" d="M30.031,189.847a.889.889,0,0,0-.112-.64.9.9,0,0,0-.459.461c-.094.3-.043.591.114.641S29.936,190.151,30.031,189.847Z" transform="translate(-26.786 -183.962)" fill="#fcf6a8"/>
        <path id="Path_252" data-name="Path 252" d="M32.343,189.636a.89.89,0,0,0-.52-.388.887.887,0,0,0-.017.649c.139.287.373.461.521.389S32.483,189.922,32.343,189.636Z" transform="translate(-27.502 -183.974)" fill="#fcf6a8"/>
        <path id="Path_253" data-name="Path 253" d="M33.854,187.8a.886.886,0,0,0-.64.11.89.89,0,0,0,.459.46c.3.1.59.047.641-.11S34.158,187.9,33.854,187.8Z" transform="translate(-27.952 -183.523)" fill="#fcf6a8"/>
        <path id="Path_254" data-name="Path 254" d="M33.672,185.456a.888.888,0,0,0-.394.516.887.887,0,0,0,.649.024c.288-.137.464-.367.394-.518S33.959,185.32,33.672,185.456Z" transform="translate(-27.972 -182.781)" fill="#fcf6a8"/>
        <path id="Path_255" data-name="Path 255" d="M31.86,183.784a.889.889,0,0,0,.082.644.89.89,0,0,0,.479-.439c.11-.3.072-.588-.082-.645S31.97,183.484,31.86,183.784Z" transform="translate(-27.526 -182.16)" fill="#fcf6a8"/>
      </g>
    </g>
  </g>
  <g id="Group_110" data-name="Group 110" transform="translate(18.003 0)">
    <g id="Group_105" data-name="Group 105" transform="translate(0.085)">
      <g id="Group_104" data-name="Group 104">
        <path id="Path_256" data-name="Path 256" d="M68.232,163.955c0,.017.011.028.011.033V186.17c0,.973-.783,1.98-2.225,2.739a13.45,13.45,0,0,1-6.16,1.286h-.033c-5.255-.011-8.385-2.074-8.385-4.025V163.988a.2.2,0,0,0,.006-.033c0-.011-.006-.028-.006-.045.011-2.169,1.6-4.433,3.209-6.669a9.478,9.478,0,0,0,1.386-4.908c.006-.15.011-.285.011-.408H55.9a1.172,1.172,0,0,1-1.252-1.074v-.939a1.172,1.172,0,0,1,1.252-1.079h7.882a1.274,1.274,0,0,1,1.158.654,1.016,1.016,0,0,1,.095.426v.939a1.173,1.173,0,0,1-1.253,1.074h-.145c0,.123.006.257.011.408a9.472,9.472,0,0,0,1.386,4.908c1.6,2.236,3.192,4.5,3.209,6.669C68.243,163.926,68.232,163.944,68.232,163.955Z" transform="translate(-51.439 -148.831)" fill="#caecf4"/>
        <path id="Path_257" data-name="Path 257" d="M53.988,171.131v21.914c0,1.3,2.977,2.35,6.65,2.35s6.65-1.052,6.65-2.35V171.131Z" transform="translate(-52.221 -155.673)" fill="#fbcb43"/>
        <path id="Path_258" data-name="Path 258" d="M67.288,170.623c0,.633-2.978,1.148-6.65,1.148s-6.65-.515-6.65-1.148,2.977-1.147,6.65-1.147S67.288,169.989,67.288,170.623Z" transform="translate(-52.221 -155.165)" fill="#f5b400"/>
        <rect id="Rectangle_73" data-name="Rectangle 73" width="10.484" height="3.503" rx="1.613" transform="translate(3.12)" fill="#f5b400"/>
        <path id="Rectangle_74" data-name="Rectangle 74" d="M1.237,0h0A1.237,1.237,0,0,1,2.475,1.237V7.063A1.238,1.238,0,0,1,1.237,8.3h0A1.237,1.237,0,0,1,0,7.063V1.237A1.237,1.237,0,0,1,1.237,0Z" transform="translate(8.526 4.557)" fill="#fff"/>
      </g>
      <rect id="Rectangle_75" data-name="Rectangle 75" width="2.677" height="16.755" rx="1.339" transform="translate(11.001 18.046)" fill="#fff"/>
    </g>
    <path id="Path_259" data-name="Path 259" d="M59.845,191.055c-6.759,1.181-8.528-1.181-8.528-1.181V175.481s1.213,2.209,8.528,1.181Z" transform="translate(-51.317 -157.007)" fill="#f2f2f2"/>
    <g id="Group_109" data-name="Group 109" transform="translate(0.618 23.165)">
      <g id="Group_106" data-name="Group 106" transform="translate(0 0.506)">
        <path id="Path_260" data-name="Path 260" d="M57.851,189.234a3.129,3.129,0,0,1-3.133.845c-.193-.082-.281-.274-.458-.368a1.3,1.3,0,0,0-.358-.026.467.467,0,0,1-.176-.037,3.263,3.263,0,0,1-1.515-3.013c-.04-1.99,1.009-3.625,2.343-3.654a2.821,2.821,0,0,1,.525.032,1.983,1.983,0,0,1,.571.186,4.449,4.449,0,0,1,1.108.851l.044.043a2.8,2.8,0,0,1,2.307.988C59.952,186.113,59.389,187.971,57.851,189.234Z" transform="translate(-52.208 -182.979)" fill="#f15723"/>
      </g>
      <g id="Group_107" data-name="Group 107" transform="translate(4.38)">
        <path id="Path_261" data-name="Path 261" d="M58.673,184.213a.234.234,0,0,1-.134-.18,1.823,1.823,0,0,1,.323-1.28,1.432,1.432,0,0,1,1.065-.5.234.234,0,1,1,.033.467.987.987,0,0,0-.735.331,1.375,1.375,0,0,0-.225.921.233.233,0,0,1-.2.263A.23.23,0,0,1,58.673,184.213Z" transform="translate(-58.527 -182.249)" fill="#79544e"/>
      </g>
      <g id="Group_108" data-name="Group 108" transform="translate(5.251 2.885)">
        <path id="Path_262" data-name="Path 262" d="M60.926,187.131c.18.491.089.976-.2,1.081s-.671-.207-.851-.7-.09-.977.2-1.083S60.746,186.639,60.926,187.131Z" transform="translate(-59.783 -186.412)" fill="#fff"/>
      </g>
    </g>
  </g>
</svg>
