{
  "/static/dizzy_app": {
    "target": "http://127.0.0.1:4200",
    "secure": false,
    "logLevel": "debug",
    "pathRewrite": {
      "^/static/": ""
    }
  },
  "/static": {
    "target": "http://127.0.0.1:5000",
    "secure": false,
    "logLevel": "debug"
  }
}
